[
  {
    "name": "Rose",
    "file_name": "cupcakes/cupcake-1.jpg",
    "price": "$9.00"
  },
  {
    "name": "Blue",
    "file_name": "cupcakes/cupcake-2.jpg",
    "price": "$15.00"
  },
  {
    "name": "Vanilla",
    "file_name": "cupcakes/cupcake-3.jpg",
    "price": "$5.00"
  },
  {
    "name": "Caramel",
    "file_name": "cupcakes/cupcake-4.jpg",
    "price": "$9.00"
  },
  {
    "name": "Orange",
    "file_name": "cupcakes/cupcake-5.jpg",
    "price": "$15.00"
  },
  {
    "name": "Banana",
    "file_name": "cupcakes/cupcake-6.jpg",
    "price": "$5.00"
  },
  {
    "name": "Berries",
    "file_name": "cupcakes/cupcake-7.jpg",
    "price": "$15.00"
  },
  {
    "name": "Chocolate",
    "file_name": "cupcakes/cupcake-8.jpg",
    "price": "$5.00"
  }
]
